-- Merging decision tree log ---
manifest
ADDED from D:\try\android\app\src\main\AndroidManifest.xml:1:1-39:12
INJECTED from D:\try\android\app\src\main\AndroidManifest.xml:1:1-39:12
INJECTED from D:\try\android\app\src\main\AndroidManifest.xml:1:1-39:12
INJECTED from D:\try\android\app\src\main\AndroidManifest.xml:1:1-39:12
MERGED from [com.android.support:support-fragment:28.0.0] C:\Users\Cheater\.gradle\caches\transforms-2\files-2.1\6e07dd593fd232c7452c3c20dd27a8e1\support-fragment-28.0.0\AndroidManifest.xml:17:1-22:12
MERGED from [com.android.support:support-core-ui:28.0.0] C:\Users\Cheater\.gradle\caches\transforms-2\files-2.1\4ac8bacc6bdc06da514981c2a3855a4a\support-core-ui-28.0.0\AndroidManifest.xml:17:1-22:12
MERGED from [com.android.support:support-core-utils:28.0.0] C:\Users\Cheater\.gradle\caches\transforms-2\files-2.1\d5d5e0afb6d849720ba2f95b3e39fcb5\support-core-utils-28.0.0\AndroidManifest.xml:17:1-22:12
MERGED from [com.android.support:loader:28.0.0] C:\Users\Cheater\.gradle\caches\transforms-2\files-2.1\1b9d515d8d1965c403de8914ca55cb7e\loader-28.0.0\AndroidManifest.xml:17:1-22:12
MERGED from [com.android.support:viewpager:28.0.0] C:\Users\Cheater\.gradle\caches\transforms-2\files-2.1\f92ce9c7365574accb4fbe105fd65c21\viewpager-28.0.0\AndroidManifest.xml:17:1-22:12
MERGED from [com.android.support:coordinatorlayout:28.0.0] C:\Users\Cheater\.gradle\caches\transforms-2\files-2.1\27bfd3d5fa1a19402f7d4ba14fb093b2\coordinatorlayout-28.0.0\AndroidManifest.xml:17:1-22:12
MERGED from [com.android.support:drawerlayout:28.0.0] C:\Users\Cheater\.gradle\caches\transforms-2\files-2.1\efc59ff1f1e99fe01414b630035d92d4\drawerlayout-28.0.0\AndroidManifest.xml:17:1-22:12
MERGED from [com.android.support:slidingpanelayout:28.0.0] C:\Users\Cheater\.gradle\caches\transforms-2\files-2.1\6064ab6775e6301e62ccb69ace9dbdbd\slidingpanelayout-28.0.0\AndroidManifest.xml:17:1-22:12
MERGED from [com.android.support:customview:28.0.0] C:\Users\Cheater\.gradle\caches\transforms-2\files-2.1\3c823cc0e07b899cd90d87fa2096c1f1\customview-28.0.0\AndroidManifest.xml:17:1-22:12
MERGED from [com.android.support:swiperefreshlayout:28.0.0] C:\Users\Cheater\.gradle\caches\transforms-2\files-2.1\a3a8c8cd8e894f6104aa84c89d48db43\swiperefreshlayout-28.0.0\AndroidManifest.xml:17:1-22:12
MERGED from [com.android.support:asynclayoutinflater:28.0.0] C:\Users\Cheater\.gradle\caches\transforms-2\files-2.1\65fb01e2ae4e35f2f343847d68c9b98d\asynclayoutinflater-28.0.0\AndroidManifest.xml:17:1-22:12
MERGED from [com.android.support:support-compat:28.0.0] C:\Users\Cheater\.gradle\caches\transforms-2\files-2.1\4e7b3bbed8e6e29e2ba6d4fc6e8eccff\support-compat-28.0.0\AndroidManifest.xml:17:1-24:12
MERGED from [android.arch.lifecycle:runtime:1.1.1] C:\Users\Cheater\.gradle\caches\transforms-2\files-2.1\0160f619c43aa1ecd28ae91ba8993552\runtime-1.1.1\AndroidManifest.xml:17:1-22:12
MERGED from [android.arch.lifecycle:livedata:1.1.1] C:\Users\Cheater\.gradle\caches\transforms-2\files-2.1\f33d666ad8cee70ee4e661f9bad8e372\livedata-1.1.1\AndroidManifest.xml:17:1-22:12
MERGED from [android.arch.lifecycle:livedata-core:1.1.1] C:\Users\Cheater\.gradle\caches\transforms-2\files-2.1\85526c118dcfe3eae0cf402e2cecc572\livedata-core-1.1.1\AndroidManifest.xml:17:1-22:12
MERGED from [android.arch.core:runtime:1.1.1] C:\Users\Cheater\.gradle\caches\transforms-2\files-2.1\5853616defd81755613306a8befefe63\runtime-1.1.1\AndroidManifest.xml:17:1-22:12
MERGED from [android.arch.lifecycle:viewmodel:1.1.1] C:\Users\Cheater\.gradle\caches\transforms-2\files-2.1\823f37c489bd02c4a4d0f6ca442a27d7\viewmodel-1.1.1\AndroidManifest.xml:17:1-22:12
MERGED from [com.android.support:versionedparcelable:28.0.0] C:\Users\Cheater\.gradle\caches\transforms-2\files-2.1\d107c5806233895e5be684de327d381f\versionedparcelable-28.0.0\AndroidManifest.xml:17:1-25:12
MERGED from [com.android.support:interpolator:28.0.0] C:\Users\Cheater\.gradle\caches\transforms-2\files-2.1\d622bc834304bbaef61946e6b6568c26\interpolator-28.0.0\AndroidManifest.xml:17:1-22:12
MERGED from [com.android.support:cursoradapter:28.0.0] C:\Users\Cheater\.gradle\caches\transforms-2\files-2.1\ad328008f0a36049c16e2e42bbe6ba36\cursoradapter-28.0.0\AndroidManifest.xml:17:1-22:12
MERGED from [com.android.support:documentfile:28.0.0] C:\Users\Cheater\.gradle\caches\transforms-2\files-2.1\1938455035f0a35aa3eefef3aa9fbbc4\documentfile-28.0.0\AndroidManifest.xml:17:1-22:12
MERGED from [com.android.support:localbroadcastmanager:28.0.0] C:\Users\Cheater\.gradle\caches\transforms-2\files-2.1\1dc9df8e70a38f62679d702ec717a6a9\localbroadcastmanager-28.0.0\AndroidManifest.xml:17:1-22:12
MERGED from [com.android.support:print:28.0.0] C:\Users\Cheater\.gradle\caches\transforms-2\files-2.1\4fd4a6ed80eb447e76c05986ef3fd6a1\print-28.0.0\AndroidManifest.xml:17:1-22:12
INJECTED from D:\try\android\app\src\main\AndroidManifest.xml:1:1-39:12
INJECTED from D:\try\android\app\src\main\AndroidManifest.xml:1:1-39:12
INJECTED from D:\try\android\app\src\main\AndroidManifest.xml:1:1-39:12
	package
		ADDED from D:\try\android\app\src\main\AndroidManifest.xml:2:5-36
		INJECTED from D:\try\android\app\src\main\AndroidManifest.xml
		INJECTED from D:\try\android\app\src\main\AndroidManifest.xml
	android:versionName
		INJECTED from D:\try\android\app\src\main\AndroidManifest.xml
		ADDED from D:\try\android\app\src\main\AndroidManifest.xml:1:1-39:12
		INJECTED from D:\try\android\app\src\main\AndroidManifest.xml
	android:versionCode
		INJECTED from D:\try\android\app\src\main\AndroidManifest.xml
		ADDED from D:\try\android\app\src\main\AndroidManifest.xml:1:1-39:12
		INJECTED from D:\try\android\app\src\main\AndroidManifest.xml
	xmlns:android
		ADDED from D:\try\android\app\src\main\AndroidManifest.xml:1:11-69
uses-permission#android.permission.INTERNET
ADDED from D:\try\android\app\src\main\AndroidManifest.xml:8:5-66
	android:name
		ADDED from D:\try\android\app\src\main\AndroidManifest.xml:8:22-64
application
ADDED from D:\try\android\app\src\main\AndroidManifest.xml:15:5-38:19
MERGED from [com.android.support:support-compat:28.0.0] C:\Users\Cheater\.gradle\caches\transforms-2\files-2.1\4e7b3bbed8e6e29e2ba6d4fc6e8eccff\support-compat-28.0.0\AndroidManifest.xml:22:5-94
MERGED from [com.android.support:support-compat:28.0.0] C:\Users\Cheater\.gradle\caches\transforms-2\files-2.1\4e7b3bbed8e6e29e2ba6d4fc6e8eccff\support-compat-28.0.0\AndroidManifest.xml:22:5-94
MERGED from [com.android.support:versionedparcelable:28.0.0] C:\Users\Cheater\.gradle\caches\transforms-2\files-2.1\d107c5806233895e5be684de327d381f\versionedparcelable-28.0.0\AndroidManifest.xml:22:5-23:19
MERGED from [com.android.support:versionedparcelable:28.0.0] C:\Users\Cheater\.gradle\caches\transforms-2\files-2.1\d107c5806233895e5be684de327d381f\versionedparcelable-28.0.0\AndroidManifest.xml:22:5-23:19
	android:appComponentFactory
		ADDED from [com.android.support:support-compat:28.0.0] C:\Users\Cheater\.gradle\caches\transforms-2\files-2.1\4e7b3bbed8e6e29e2ba6d4fc6e8eccff\support-compat-28.0.0\AndroidManifest.xml:22:18-91
	android:label
		ADDED from D:\try\android\app\src\main\AndroidManifest.xml:17:9-34
	android:icon
		ADDED from D:\try\android\app\src\main\AndroidManifest.xml:18:9-43
	android:name
		ADDED from D:\try\android\app\src\main\AndroidManifest.xml:16:9-57
activity#com.example.recipeapp.MainActivity
ADDED from D:\try\android\app\src\main\AndroidManifest.xml:19:9-37:20
	android:launchMode
		ADDED from D:\try\android\app\src\main\AndroidManifest.xml:21:13-43
	android:hardwareAccelerated
		ADDED from D:\try\android\app\src\main\AndroidManifest.xml:24:13-47
	android:windowSoftInputMode
		ADDED from D:\try\android\app\src\main\AndroidManifest.xml:25:13-55
	android:configChanges
		ADDED from D:\try\android\app\src\main\AndroidManifest.xml:23:13-137
	android:theme
		ADDED from D:\try\android\app\src\main\AndroidManifest.xml:22:13-47
	android:name
		ADDED from D:\try\android\app\src\main\AndroidManifest.xml:20:13-41
meta-data#io.flutter.app.android.SplashScreenUntilFirstFrame
ADDED from D:\try\android\app\src\main\AndroidManifest.xml:30:13-32:40
	android:value
		ADDED from D:\try\android\app\src\main\AndroidManifest.xml:32:17-37
	android:name
		ADDED from D:\try\android\app\src\main\AndroidManifest.xml:31:17-82
intent-filter#action:name:android.intent.action.MAIN+category:name:android.intent.category.LAUNCHER
ADDED from D:\try\android\app\src\main\AndroidManifest.xml:33:13-36:29
action#android.intent.action.MAIN
ADDED from D:\try\android\app\src\main\AndroidManifest.xml:34:17-68
	android:name
		ADDED from D:\try\android\app\src\main\AndroidManifest.xml:34:25-66
category#android.intent.category.LAUNCHER
ADDED from D:\try\android\app\src\main\AndroidManifest.xml:35:17-76
	android:name
		ADDED from D:\try\android\app\src\main\AndroidManifest.xml:35:27-74
uses-sdk
INJECTED from D:\try\android\app\src\main\AndroidManifest.xml reason: use-sdk injection requested
INJECTED from D:\try\android\app\src\main\AndroidManifest.xml
INJECTED from D:\try\android\app\src\main\AndroidManifest.xml
MERGED from [com.android.support:support-fragment:28.0.0] C:\Users\Cheater\.gradle\caches\transforms-2\files-2.1\6e07dd593fd232c7452c3c20dd27a8e1\support-fragment-28.0.0\AndroidManifest.xml:20:5-44
MERGED from [com.android.support:support-fragment:28.0.0] C:\Users\Cheater\.gradle\caches\transforms-2\files-2.1\6e07dd593fd232c7452c3c20dd27a8e1\support-fragment-28.0.0\AndroidManifest.xml:20:5-44
MERGED from [com.android.support:support-core-ui:28.0.0] C:\Users\Cheater\.gradle\caches\transforms-2\files-2.1\4ac8bacc6bdc06da514981c2a3855a4a\support-core-ui-28.0.0\AndroidManifest.xml:20:5-44
MERGED from [com.android.support:support-core-ui:28.0.0] C:\Users\Cheater\.gradle\caches\transforms-2\files-2.1\4ac8bacc6bdc06da514981c2a3855a4a\support-core-ui-28.0.0\AndroidManifest.xml:20:5-44
MERGED from [com.android.support:support-core-utils:28.0.0] C:\Users\Cheater\.gradle\caches\transforms-2\files-2.1\d5d5e0afb6d849720ba2f95b3e39fcb5\support-core-utils-28.0.0\AndroidManifest.xml:20:5-44
MERGED from [com.android.support:support-core-utils:28.0.0] C:\Users\Cheater\.gradle\caches\transforms-2\files-2.1\d5d5e0afb6d849720ba2f95b3e39fcb5\support-core-utils-28.0.0\AndroidManifest.xml:20:5-44
MERGED from [com.android.support:loader:28.0.0] C:\Users\Cheater\.gradle\caches\transforms-2\files-2.1\1b9d515d8d1965c403de8914ca55cb7e\loader-28.0.0\AndroidManifest.xml:20:5-44
MERGED from [com.android.support:loader:28.0.0] C:\Users\Cheater\.gradle\caches\transforms-2\files-2.1\1b9d515d8d1965c403de8914ca55cb7e\loader-28.0.0\AndroidManifest.xml:20:5-44
MERGED from [com.android.support:viewpager:28.0.0] C:\Users\Cheater\.gradle\caches\transforms-2\files-2.1\f92ce9c7365574accb4fbe105fd65c21\viewpager-28.0.0\AndroidManifest.xml:20:5-44
MERGED from [com.android.support:viewpager:28.0.0] C:\Users\Cheater\.gradle\caches\transforms-2\files-2.1\f92ce9c7365574accb4fbe105fd65c21\viewpager-28.0.0\AndroidManifest.xml:20:5-44
MERGED from [com.android.support:coordinatorlayout:28.0.0] C:\Users\Cheater\.gradle\caches\transforms-2\files-2.1\27bfd3d5fa1a19402f7d4ba14fb093b2\coordinatorlayout-28.0.0\AndroidManifest.xml:20:5-44
MERGED from [com.android.support:coordinatorlayout:28.0.0] C:\Users\Cheater\.gradle\caches\transforms-2\files-2.1\27bfd3d5fa1a19402f7d4ba14fb093b2\coordinatorlayout-28.0.0\AndroidManifest.xml:20:5-44
MERGED from [com.android.support:drawerlayout:28.0.0] C:\Users\Cheater\.gradle\caches\transforms-2\files-2.1\efc59ff1f1e99fe01414b630035d92d4\drawerlayout-28.0.0\AndroidManifest.xml:20:5-44
MERGED from [com.android.support:drawerlayout:28.0.0] C:\Users\Cheater\.gradle\caches\transforms-2\files-2.1\efc59ff1f1e99fe01414b630035d92d4\drawerlayout-28.0.0\AndroidManifest.xml:20:5-44
MERGED from [com.android.support:slidingpanelayout:28.0.0] C:\Users\Cheater\.gradle\caches\transforms-2\files-2.1\6064ab6775e6301e62ccb69ace9dbdbd\slidingpanelayout-28.0.0\AndroidManifest.xml:20:5-44
MERGED from [com.android.support:slidingpanelayout:28.0.0] C:\Users\Cheater\.gradle\caches\transforms-2\files-2.1\6064ab6775e6301e62ccb69ace9dbdbd\slidingpanelayout-28.0.0\AndroidManifest.xml:20:5-44
MERGED from [com.android.support:customview:28.0.0] C:\Users\Cheater\.gradle\caches\transforms-2\files-2.1\3c823cc0e07b899cd90d87fa2096c1f1\customview-28.0.0\AndroidManifest.xml:20:5-44
MERGED from [com.android.support:customview:28.0.0] C:\Users\Cheater\.gradle\caches\transforms-2\files-2.1\3c823cc0e07b899cd90d87fa2096c1f1\customview-28.0.0\AndroidManifest.xml:20:5-44
MERGED from [com.android.support:swiperefreshlayout:28.0.0] C:\Users\Cheater\.gradle\caches\transforms-2\files-2.1\a3a8c8cd8e894f6104aa84c89d48db43\swiperefreshlayout-28.0.0\AndroidManifest.xml:20:5-44
MERGED from [com.android.support:swiperefreshlayout:28.0.0] C:\Users\Cheater\.gradle\caches\transforms-2\files-2.1\a3a8c8cd8e894f6104aa84c89d48db43\swiperefreshlayout-28.0.0\AndroidManifest.xml:20:5-44
MERGED from [com.android.support:asynclayoutinflater:28.0.0] C:\Users\Cheater\.gradle\caches\transforms-2\files-2.1\65fb01e2ae4e35f2f343847d68c9b98d\asynclayoutinflater-28.0.0\AndroidManifest.xml:20:5-44
MERGED from [com.android.support:asynclayoutinflater:28.0.0] C:\Users\Cheater\.gradle\caches\transforms-2\files-2.1\65fb01e2ae4e35f2f343847d68c9b98d\asynclayoutinflater-28.0.0\AndroidManifest.xml:20:5-44
MERGED from [com.android.support:support-compat:28.0.0] C:\Users\Cheater\.gradle\caches\transforms-2\files-2.1\4e7b3bbed8e6e29e2ba6d4fc6e8eccff\support-compat-28.0.0\AndroidManifest.xml:20:5-44
MERGED from [com.android.support:support-compat:28.0.0] C:\Users\Cheater\.gradle\caches\transforms-2\files-2.1\4e7b3bbed8e6e29e2ba6d4fc6e8eccff\support-compat-28.0.0\AndroidManifest.xml:20:5-44
MERGED from [android.arch.lifecycle:runtime:1.1.1] C:\Users\Cheater\.gradle\caches\transforms-2\files-2.1\0160f619c43aa1ecd28ae91ba8993552\runtime-1.1.1\AndroidManifest.xml:20:5-44
MERGED from [android.arch.lifecycle:runtime:1.1.1] C:\Users\Cheater\.gradle\caches\transforms-2\files-2.1\0160f619c43aa1ecd28ae91ba8993552\runtime-1.1.1\AndroidManifest.xml:20:5-44
MERGED from [android.arch.lifecycle:livedata:1.1.1] C:\Users\Cheater\.gradle\caches\transforms-2\files-2.1\f33d666ad8cee70ee4e661f9bad8e372\livedata-1.1.1\AndroidManifest.xml:20:5-44
MERGED from [android.arch.lifecycle:livedata:1.1.1] C:\Users\Cheater\.gradle\caches\transforms-2\files-2.1\f33d666ad8cee70ee4e661f9bad8e372\livedata-1.1.1\AndroidManifest.xml:20:5-44
MERGED from [android.arch.lifecycle:livedata-core:1.1.1] C:\Users\Cheater\.gradle\caches\transforms-2\files-2.1\85526c118dcfe3eae0cf402e2cecc572\livedata-core-1.1.1\AndroidManifest.xml:20:5-44
MERGED from [android.arch.lifecycle:livedata-core:1.1.1] C:\Users\Cheater\.gradle\caches\transforms-2\files-2.1\85526c118dcfe3eae0cf402e2cecc572\livedata-core-1.1.1\AndroidManifest.xml:20:5-44
MERGED from [android.arch.core:runtime:1.1.1] C:\Users\Cheater\.gradle\caches\transforms-2\files-2.1\5853616defd81755613306a8befefe63\runtime-1.1.1\AndroidManifest.xml:20:5-44
MERGED from [android.arch.core:runtime:1.1.1] C:\Users\Cheater\.gradle\caches\transforms-2\files-2.1\5853616defd81755613306a8befefe63\runtime-1.1.1\AndroidManifest.xml:20:5-44
MERGED from [android.arch.lifecycle:viewmodel:1.1.1] C:\Users\Cheater\.gradle\caches\transforms-2\files-2.1\823f37c489bd02c4a4d0f6ca442a27d7\viewmodel-1.1.1\AndroidManifest.xml:20:5-44
MERGED from [android.arch.lifecycle:viewmodel:1.1.1] C:\Users\Cheater\.gradle\caches\transforms-2\files-2.1\823f37c489bd02c4a4d0f6ca442a27d7\viewmodel-1.1.1\AndroidManifest.xml:20:5-44
MERGED from [com.android.support:versionedparcelable:28.0.0] C:\Users\Cheater\.gradle\caches\transforms-2\files-2.1\d107c5806233895e5be684de327d381f\versionedparcelable-28.0.0\AndroidManifest.xml:20:5-44
MERGED from [com.android.support:versionedparcelable:28.0.0] C:\Users\Cheater\.gradle\caches\transforms-2\files-2.1\d107c5806233895e5be684de327d381f\versionedparcelable-28.0.0\AndroidManifest.xml:20:5-44
MERGED from [com.android.support:interpolator:28.0.0] C:\Users\Cheater\.gradle\caches\transforms-2\files-2.1\d622bc834304bbaef61946e6b6568c26\interpolator-28.0.0\AndroidManifest.xml:20:5-44
MERGED from [com.android.support:interpolator:28.0.0] C:\Users\Cheater\.gradle\caches\transforms-2\files-2.1\d622bc834304bbaef61946e6b6568c26\interpolator-28.0.0\AndroidManifest.xml:20:5-44
MERGED from [com.android.support:cursoradapter:28.0.0] C:\Users\Cheater\.gradle\caches\transforms-2\files-2.1\ad328008f0a36049c16e2e42bbe6ba36\cursoradapter-28.0.0\AndroidManifest.xml:20:5-44
MERGED from [com.android.support:cursoradapter:28.0.0] C:\Users\Cheater\.gradle\caches\transforms-2\files-2.1\ad328008f0a36049c16e2e42bbe6ba36\cursoradapter-28.0.0\AndroidManifest.xml:20:5-44
MERGED from [com.android.support:documentfile:28.0.0] C:\Users\Cheater\.gradle\caches\transforms-2\files-2.1\1938455035f0a35aa3eefef3aa9fbbc4\documentfile-28.0.0\AndroidManifest.xml:20:5-44
MERGED from [com.android.support:documentfile:28.0.0] C:\Users\Cheater\.gradle\caches\transforms-2\files-2.1\1938455035f0a35aa3eefef3aa9fbbc4\documentfile-28.0.0\AndroidManifest.xml:20:5-44
MERGED from [com.android.support:localbroadcastmanager:28.0.0] C:\Users\Cheater\.gradle\caches\transforms-2\files-2.1\1dc9df8e70a38f62679d702ec717a6a9\localbroadcastmanager-28.0.0\AndroidManifest.xml:20:5-44
MERGED from [com.android.support:localbroadcastmanager:28.0.0] C:\Users\Cheater\.gradle\caches\transforms-2\files-2.1\1dc9df8e70a38f62679d702ec717a6a9\localbroadcastmanager-28.0.0\AndroidManifest.xml:20:5-44
MERGED from [com.android.support:print:28.0.0] C:\Users\Cheater\.gradle\caches\transforms-2\files-2.1\4fd4a6ed80eb447e76c05986ef3fd6a1\print-28.0.0\AndroidManifest.xml:20:5-44
MERGED from [com.android.support:print:28.0.0] C:\Users\Cheater\.gradle\caches\transforms-2\files-2.1\4fd4a6ed80eb447e76c05986ef3fd6a1\print-28.0.0\AndroidManifest.xml:20:5-44
INJECTED from D:\try\android\app\src\main\AndroidManifest.xml
INJECTED from D:\try\android\app\src\main\AndroidManifest.xml
	android:targetSdkVersion
		INJECTED from D:\try\android\app\src\main\AndroidManifest.xml
		ADDED from D:\try\android\app\src\main\AndroidManifest.xml
		INJECTED from D:\try\android\app\src\main\AndroidManifest.xml
	android:minSdkVersion
		INJECTED from D:\try\android\app\src\main\AndroidManifest.xml
		ADDED from D:\try\android\app\src\main\AndroidManifest.xml
		INJECTED from D:\try\android\app\src\main\AndroidManifest.xml
